{
    "version": "1.1.0",
    "summary": "An implementation of the SHA cryptographic hash functions in Elm",
    "repository": "https://github.com/spisemisu/elm-sha.git",
    "license": "LGPL-3.0",
    "source-directories": [
        "src"
    ],
    "exposed-modules": [
        "SHA"
    ],
    "dependencies": {
        "elm-lang/core": "5.1.1 <= v < 6.0.0",
        "spisemisu/elm-bytes": "1.1.0 <= v < 2.0.0"
    },
    "elm-version": "0.18.0 <= v < 0.19.0"
}
